{
	"date": "2020/02/29",
	"link": "https://www.who.int/docs/default-source/coronaviruse/situation-reports/20200229-sitrep-40-covid-19.pdf?sfvrsn=849d0665_2",
	"region_reports":
	[
	  {
	    "region": "Republic of Korea",
	    "confirmed_cases": 3150,
	    "new_cases": 813,
	    "total_deaths": 17,
	    "new_deaths": 4,
	    "transmission": "Local transmission",
	    "last_case_day": 0
	  },
	  {
	    "region": "Japan",
	    "confirmed_cases": 230,
	    "new_cases": 20,
	    "total_deaths": 5,
	    "new_deaths": 1,
	    "transmission": "Local transmission",
	    "last_case_day": 0
	  },
	  {
	    "region": "Singapore",
	    "confirmed_cases": 98,
	    "new_cases": 2,
	    "total_deaths": 0,
	    "new_deaths": 0,
	    "transmission": "Local transmission",
	    "last_case_day": 0
	  },
	  {
	    "region": "Australia",
	    "confirmed_cases": 24,
	    "new_cases": 1,
	    "total_deaths": 0,
	    "new_deaths": 0,
	    "transmission": "Local transmission",
	    "last_case_day": 0
	  },
	  {
	    "region": "Malaysia",
	    "confirmed_cases": 24,
	    "new_cases": 0,
	    "total_deaths": 0,
	    "new_deaths": 0,
	    "transmission": "Local transmission",
	    "last_case_day": 2
	  },
	  {
	    "region": "Viet Nam",
	    "confirmed_cases": 16,
	    "new_cases": 0,
	    "total_deaths": 0,
	    "new_deaths": 0,
	    "transmission": "Local transmission",
	    "last_case_day": 16
	  },
	  {
	    "region": "Philippines",
	    "confirmed_cases": 3,
	    "new_cases": 0,
	    "total_deaths": 1,
	    "new_deaths": 0,
	    "transmission": "Imported cases only",
	    "last_case_day": 25
	  },
	  {
	    "region": "Cambodia",
	    "confirmed_cases": 1,
	    "new_cases": 0,
	    "total_deaths": 0,
	    "new_deaths": 0,
	    "transmission": "Imported cases only",
	    "last_case_day": 33
	  },
	  {
	    "region": "New Zealand",
	    "confirmed_cases": 1,
	    "new_cases": 0,
	    "total_deaths": 0,
	    "new_deaths": 0,
	    "transmission": "Imported cases only",
	    "last_case_day": 1
	  },
	  {
	    "region": "Italy",
	    "confirmed_cases": 888,
	    "new_cases": 238,
	    "total_deaths": 21,
	    "new_deaths": 4,
	    "transmission": "Local transmission",
	    "last_case_day": 0
	  },
	  {
	    "region": "Germany",
	    "confirmed_cases": 57,
	    "new_cases": 31,
	    "total_deaths": 0,
	    "new_deaths": 0,
	    "transmission": "Local transmission",
	    "last_case_day": 0
	  },
	  {
	    "region": "France",
	    "confirmed_cases": 57,
	    "new_cases": 19,
	    "total_deaths": 2,
	    "new_deaths": 0,
	    "transmission": "Local transmission",
	    "last_case_day": 0
	  },
	  {
	    "region": "Spain",
	    "confirmed_cases": 32,
	    "new_cases": 7,
	    "total_deaths": 0,
	    "new_deaths": 0,
	    "transmission": "Local transmission",
	    "last_case_day": 0
	  },
	  {
	    "region": "The United Kingdom",
	    "confirmed_cases": 20,
	    "new_cases": 4,
	    "total_deaths": 0,
	    "new_deaths": 0,
	    "transmission": "Local transmission",
	    "last_case_day": 0
	  },
	  {
	    "region": "Sweden",
	    "confirmed_cases": 12,
	    "new_cases": 5,
	    "total_deaths": 0,
	    "new_deaths": 0,
	    "transmission": "Imported cases only",
	    "last_case_day": 0
	  },
	  {
	    "region": "Switzerland",
	    "confirmed_cases": 10,
	    "new_cases": 4,
	    "total_deaths": 0,
	    "new_deaths": 0,
	    "transmission": "Imported cases only",
	    "last_case_day": 0
	  },
	  {
	    "region": "Norway",
	    "confirmed_cases": 6,
	    "new_cases": 2,
	    "total_deaths": 0,
	    "new_deaths": 0,
	    "transmission": "Imported cases only",
	    "last_case_day": 0
	  },
	  {
	    "region": "Croatia",
	    "confirmed_cases": 5,
	    "new_cases": 2,
	    "total_deaths": 0,
	    "new_deaths": 0,
	    "transmission": "Local transmission",
	    "last_case_day": 0
	  },
	  {
	    "region": "Israel",
	    "confirmed_cases": 5,
	    "new_cases": 2,
	    "total_deaths": 0,
	    "new_deaths": 0,
	    "transmission": "Imported cases only",
	    "last_case_day": 0
	  },
	  {
	    "region": "Austria",
	    "confirmed_cases": 5,
	    "new_cases": 1,
	    "total_deaths": 0,
	    "new_deaths": 0,
	    "transmission": "Imported cases only",
	    "last_case_day": 0
	  },
	  {
	    "region": "Romania",
	    "confirmed_cases": 3,
	    "new_cases": 2,
	    "total_deaths": 0,
	    "new_deaths": 0,
	    "transmission": "Imported cases only",
	    "last_case_day": 0
	  },
	  {
	    "region": "Greece",
	    "confirmed_cases": 3,
	    "new_cases": 0,
	    "total_deaths": 0,
	    "new_deaths": 0,
	    "transmission": "Imported cases only",
	    "last_case_day": 2
	  },
	  {
	    "region": "Denmark",
	    "confirmed_cases": 2,
	    "new_cases": 1,
	    "total_deaths": 0,
	    "new_deaths": 0,
	    "transmission": "Imported cases only",
	    "last_case_day": 0
	  },
	  {
	    "region": "Georgia",
	    "confirmed_cases": 2,
	    "new_cases": 1,
	    "total_deaths": 0,
	    "new_deaths": 0,
	    "transmission": "Imported cases only",
	    "last_case_day": 0
	  },
	  {
	    "region": "Netherlands",
	    "confirmed_cases": 2,
	    "new_cases": 1,
	    "total_deaths": 0,
	    "new_deaths": 0,
	    "transmission": "Imported cases only",
	    "last_case_day": 0
	  },
	  {
	    "region": "Finland",
	    "confirmed_cases": 2,
	    "new_cases": 0,
	    "total_deaths": 0,
	    "new_deaths": 0,
	    "transmission": "Imported cases only",
	    "last_case_day": 3
	  },
	  {
	    "region": "Russian Federation",
	    "confirmed_cases": 2,
	    "new_cases": 0,
	    "total_deaths": 0,
	    "new_deaths": 0,
	    "transmission": "Imported cases only",
	    "last_case_day": 29
	  },
	  {
	    "region": "San Marino",
	    "confirmed_cases": 1,
	    "new_cases": 1,
	    "total_deaths": 0,
	    "new_deaths": 0,
	    "transmission": "Local transmission",
	    "last_case_day": 0
	  },
	  {
	    "region": "North Macedonia",
	    "confirmed_cases": 1,
	    "new_cases": 0,
	    "total_deaths": 0,
	    "new_deaths": 0,
	    "transmission": "Imported cases only",
	    "last_case_day": 3
	  },
	  {
	    "region": "Estonia",
	    "confirmed_cases": 1,
	    "new_cases": 0,
	    "total_deaths": 0,
	    "new_deaths": 0,
	    "transmission": "Imported cases only",
	    "last_case_day": 2
	  },
	  {
	    "region": "Lithuania",
	    "confirmed_cases": 1,
	    "new_cases": 0,
	    "total_deaths": 0,
	    "new_deaths": 0,
	    "transmission": "Imported cases only",
	    "last_case_day": 1
	  },
	  {
	    "region": "Belarus",
	    "confirmed_cases": 1,
	    "new_cases": 0,
	    "total_deaths": 0,
	    "new_deaths": 0,
	    "transmission": "Imported cases only",
	    "last_case_day": 1
	  },
	  {
	    "region": "Belgium",
	    "confirmed_cases": 1,
	    "new_cases": 0,
	    "total_deaths": 0,
	    "new_deaths": 0,
	    "transmission": "Imported cases only",
	    "last_case_day": 25
	  },
	  {
	    "region": "Thailand",
	    "confirmed_cases": 42,
	    "new_cases": 2,
	    "total_deaths": 0,
	    "new_deaths": 0,
	    "transmission": "Local transmission",
	    "last_case_day": 0
	  },
	  {
	    "region": "India",
	    "confirmed_cases": 3,
	    "new_cases": 0,
	    "total_deaths": 0,
	    "new_deaths": 0,
	    "transmission": "Imported cases only",
	    "last_case_day": 26
	  },
	  {
	    "region": "Nepal",
	    "confirmed_cases": 1,
	    "new_cases": 0,
	    "total_deaths": 0,
	    "new_deaths": 0,
	    "transmission": "Imported cases only",
	    "last_case_day": 47
	  },
	  {
	    "region": "Sri Lanka",
	    "confirmed_cases": 1,
	    "new_cases": 0,
	    "total_deaths": 0,
	    "new_deaths": 0,
	    "transmission": "Imported cases only",
	    "last_case_day": 33
	  },
	  {
	    "region": "Iran Islamic Republic of",
	    "confirmed_cases": 388,
	    "new_cases": 143,
	    "total_deaths": 34,
	    "new_deaths": 8,
	    "transmission": "Local transmission",
	    "last_case_day": 0
	  },
	  {
	    "region": "Kuwait",
	    "confirmed_cases": 45,
	    "new_cases": 2,
	    "total_deaths": 0,
	    "new_deaths": 0,
	    "transmission": "Imported cases only",
	    "last_case_day": 0
	  },
	  {
	    "region": "Bahrain",
	    "confirmed_cases": 38,
	    "new_cases": 5,
	    "total_deaths": 0,
	    "new_deaths": 0,
	    "transmission": "Imported cases only",
	    "last_case_day": 0
	  },
	  {
	    "region": "United Arab Emirates",
	    "confirmed_cases": 19,
	    "new_cases": 0,
	    "total_deaths": 0,
	    "new_deaths": 0,
	    "transmission": "Local transmission",
	    "last_case_day": 2
	  },
	  {
	    "region": "Iraq",
	    "confirmed_cases": 8,
	    "new_cases": 1,
	    "total_deaths": 0,
	    "new_deaths": 0,
	    "transmission": "Imported cases only",
	    "last_case_day": 0
	  },
	  {
	    "region": "Oman",
	    "confirmed_cases": 6,
	    "new_cases": 0,
	    "total_deaths": 0,
	    "new_deaths": 0,
	    "transmission": "Imported cases only",
	    "last_case_day": 2
	  },
	  {
	    "region": "Lebanon",
	    "confirmed_cases": 2,
	    "new_cases": 0,
	    "total_deaths": 0,
	    "new_deaths": 0,
	    "transmission": "Imported cases only",
	    "last_case_day": 3
	  },
	  {
	    "region": "Pakistan",
	    "confirmed_cases": 2,
	    "new_cases": 0,
	    "total_deaths": 0,
	    "new_deaths": 0,
	    "transmission": "Imported cases only",
	    "last_case_day": 3
	  },
	  {
	    "region": "Afghanistan",
	    "confirmed_cases": 1,
	    "new_cases": 0,
	    "total_deaths": 0,
	    "new_deaths": 0,
	    "transmission": "Imported cases only",
	    "last_case_day": 5
	  },
	  {
	    "region": "Egypt",
	    "confirmed_cases": 1,
	    "new_cases": 0,
	    "total_deaths": 0,
	    "new_deaths": 0,
	    "transmission": "Imported cases only",
	    "last_case_day": 15
	  },
	  {
	    "region": "United States of America",
	    "confirmed_cases": 62,
	    "new_cases": 3,
	    "total_deaths": 0,
	    "new_deaths": 0,
	    "transmission": "Local transmission",
	    "last_case_day": 0
	  },
	  {
	    "region": "Canada",
	    "confirmed_cases": 14,
	    "new_cases": 3,
	    "total_deaths": 0,
	    "new_deaths": 0,
	    "transmission": "Imported cases only",
	    "last_case_day": 0
	  },
	  {
	    "region": "Mexico",
	    "confirmed_cases": 2,
	    "new_cases": 2,
	    "total_deaths": 0,
	    "new_deaths": 0,
	    "transmission": "Imported cases only",
	    "last_case_day": 0
	  },
	  {
	    "region": "Brazil",
	    "confirmed_cases": 1,
	    "new_cases": 0,
	    "total_deaths": 0,
	    "new_deaths": 0,
	    "transmission": "Imported cases only",
	    "last_case_day": 3
	  },
	  {
	    "region": "Algeria",
	    "confirmed_cases": 1,
	    "new_cases": 0,
	    "total_deaths": 0,
	    "new_deaths": 0,
	    "transmission": "Imported cases only",
	    "last_case_day": 4
	  },
	  {
	    "region": "Nigeria",
	    "confirmed_cases": 1,
	    "new_cases": 0,
	    "total_deaths": 0,
	    "new_deaths": 0,
	    "transmission": "Imported cases only",
	    "last_case_day": 1
	  }
	]
}
